…
    ## Rows: 120 Columns: 5
    ## ── Column specification ────────────────────────────────────────────────────────
    ## Delimiter: ","
    ## chr (3): Baker Name, Baker Occupation, Hometown
    ## dbl (2): Series, Baker Age
    ## 
    ## ℹ Use `spec()` to retrieve the full column specification for this data.
    ## ℹ Specify the column types or set `show_col_types = FALSE` to quiet this message.

    ## # A tibble: 120 × 6
    ##    baker     baker_last_name series baker_age baker_occupation          hometown
    ##    <chr>     <chr>            <dbl>     <dbl> <chr>                     <chr>   
    ##  1 Ali       Imdad                4        25 Charity worker            Saltley…
    ##  2 Alice     Fevronia            10        28 Geography teacher         Essex   
    ##  3 Alvin     Magallanes           6        37 Nurse                     Brackne…
    ##  4 Amelia    LeBruin             10        24 Fashion designer          Halifax 
    ##  5 Andrew    Smyth                7        25 Aerospace engineer        Derby /…
    ##  6 Annetha   Mills                1        30 Midwife                   Essex   
    ##  7 Antony    Amourdoux            9        30 Banker                    London  
    ##  8 Beca      Lyne-Pirkis          4        31 Military Wives' Choir Si… Aldersh…
    ##  9 Ben       Frazer               2        31 Graphic Designer          Northam…
    ## 10 Benjamina Ebuehi               7        23 Teaching assistant        South L…
    ## # ℹ 110 more rows
…
    ## Rows: 548 Columns: 5
    ## ── Column specification ────────────────────────────────────────────────────────
    ## Delimiter: ","
    ## chr (3): Baker, Signature Bake, Show Stopper
    ## dbl (2): Series, Episode
    ## 
    ## ℹ Use `spec()` to retrieve the full column specification for this data.
    ## ℹ Specify the column types or set `show_col_types = FALSE` to quiet this message.

    ## # A tibble: 548 × 5
    ##    series episode baker     signature_bake                          show_stopper
    ##     <dbl>   <dbl> <chr>     <chr>                                   <chr>       
    ##  1      1       1 Annetha   "Light Jamaican Black Cakewith Strawbe… Red, White …
    ##  2      1       1 David     "Chocolate Orange Cake"                 Black Fores…
    ##  3      1       1 Edd       "Caramel Cinnamon and Banana Cake"      <NA>        
    ##  4      1       1 Jasminder "Fresh Mango and Passion Fruit Humming… <NA>        
    ##  5      1       1 Jonathan  "Carrot Cake with Lime and Cream Chees… Three Tiere…
    ##  6      1       1 Lea       "Cranberry and Pistachio Cakewith Oran… Raspberries…
    ##  7      1       1 Louise    "Carrot and Orange Cake"                Never Fail …
    ##  8      1       1 Mark      "Sticky Marmalade Tea Loaf"             Heart-shape…
    ##  9      1       1 Miranda   "Triple Layered Brownie Meringue Cake\… Three Tiere…
    ## 10      1       1 Ruth      "Three Tiered Lemon Drizzle Cakewith F… Classic Cho…
    ## # ℹ 538 more rows
…
    ## Rows: 1136 Columns: 5
    ## ── Column specification ────────────────────────────────────────────────────────
    ## Delimiter: ","
    ## chr (2): baker, result
    ## dbl (3): series, episode, technical
    ## 
    ## ℹ Use `spec()` to retrieve the full column specification for this data.
    ## ℹ Specify the column types or set `show_col_types = FALSE` to quiet this message.

    ## # A tibble: 1,136 × 5
    ##    series episode baker     technical result
    ##     <dbl>   <dbl> <chr>         <dbl> <chr> 
    ##  1      1       1 Annetha           2 IN    
    ##  2      1       1 David             3 IN    
    ##  3      1       1 Edd               1 IN    
    ##  4      1       1 Jasminder        NA IN    
    ##  5      1       1 Jonathan          9 IN    
    ##  6      1       1 Louise           NA IN    
    ##  7      1       1 Miranda           8 IN    
    ##  8      1       1 Ruth             NA IN    
    ##  9      1       1 Lea              10 OUT   
    ## 10      1       1 Mark             NA OUT   
    ## # ℹ 1,126 more rows
…
